﻿Murid Kelas 1 CERDAS,,,,,,,,,,,,,
,,,,,,,,,,,,,
No. KP,No. Sijil Lahir,Nama,Tarikh Lahir,Jantina,Kaum,Agama,No. KP Bapa,Nama Bapa,No. KP Ibu,Nama Ibu,Pendapatan Penjaga Utama,Pendapatan Penjaga Kedua,Jumlah Pendapatan
050707070834,BN41896,NUR FARIZATUL AISHAH BINTI ABDUL GHAFFAR,07/07/2005,PEREMPUAN,MELAYU,ISLAM          ,760504075906,SITI RAHANA BT SAMSURI,691101085417,BADLISHAH BIN BASRI,953,1000,1953
040730070307,BJ07843,YEAP KHAI LOON,30/07/2004,LELAKI,CINA,BUDDHA         ,820115075023,YEAP CHOOI HOOI,881206355492,NG MEI MEI,900,0,900
041211070721,BK40187,OH ZHONG KEN,11/12/2004,LELAKI,CINA,BUDDHA         ,700123075609,OH HOE HENG,721117075154,GOH GAIK KUAN,2500,0,2500
050105070407,BK40613,ABDUL QAHHAR BIN MOHD AZHAR,05/01/2005,LELAKI,MELAYU,ISLAM          ,680706075680,NOOR HAYATI BINTI AHMAD,680706075680,NOOR HAYATI BINTI AHMAD,600,100,700
050505070553,BL85607,SHRIEMAAN RAAJ A/L ISVARAN,05/05/2005,LELAKI,INDIA,HINDU          ,700912075855,ISVARAN  A/L  KUMAREN,730413075284,SANTHI  A/P  AYAVOO,4000,0,4000
040108020959,BE74948,KERSHAN A/L OMYANDRAN,08/01/2004,LELAKI,INDIA,HINDU          ,711122075627,OMYANNDRAN a/l Setiaveloo,710505085334,MANONMANI A/P PERMAL,1000,0,1000
041202070535,BK38956,TEOH TIAN AIK,02/12/2004,LELAKI,CINA,BUDDHA         ,681113075639,TEOH LIEW POH,780815075178,TAN SEE HOON,2500,0,2500
041223070761,BK40399,AVINAASH A/L SARVESWAREN,23/12/2004,LELAKI,INDIA,HINDU          ,790819075545,SARVESWAREN  A/L  RAMU,851019075068,PATHMAHSHNI  A/P  MARIAPPAN,850,0,850
051107070413,BN40088,MUHAMMAD ASMAWI ANIQ BIN MOHD RADZI,07/11/2005,LELAKI,MELAYU,ISLAM          ,700613085981,MOHD RADZI B GHAZALI,780519075042,NORMAHIZAN BT MOHAMAD RAZUKI,1200,0,1200
050329070086,BL84807,NURIN BATRISYIA BINTI AZLI,29/03/2005,PEREMPUAN,MELAYU,ISLAM          ,750614075537,AZLI BIN AHMED,780108026174,ROSIZA BINTI ISMAIL,800,900,1700
051017070225,BN45223,CHIN HAO JUN,17/10/2005,LELAKI,CINA,BUDDHA         ,700802075387,CHIN AH SANG,801005085446,QUAH AI THENG,2600,0,2600
041031670068,,MISS UEAMPORN SANGUANSIT,31/10/2004,PEREMPUAN,CINA,BUDDHA         ,510610075051,NG BUCK SOON,920701025369,NG CHEE AN,1500,,1500
050925070189,BN44736,MUHAMMAD RUHAIMIE HAMIZAL BIN MOHD FAIZUL AZWAN,25/09/2005,LELAKI,MELAYU,ISLAM          ,850618026108,SITI ROHANAH BINTI ZINAN,,,700,,700
050613070083,BL91207,MUHAMMAD SYAHIR BIN MAT SALLEH,13/06/2005,LELAKI,MELAYU,ISLAM          ,700418085679,MAT  SALLEH B SIDEK,740427075380,FAUZIAH BT ABDULLAH,1050,0,1050
041006070888,BN43548,TAN KHAI WAN,06/10/2004,PEREMPUAN,CINA,BUDDHA         ,750531075099,TAN JIN WOOI,850304075062,CHUNG SIEW KEE,0,1200,1200
050621070083,BL91383,MUNES A/L NAGARAJAH,21/06/2005,LELAKI,INDIA,HINDU          ,740102075024,NAGARAJAH A/L RAMAN,720112075441,THILAGA A/P VEERAN,900,1000,1900
050924020753,BP41889,MUHAMMAD NASRUL HISYAM BIN MUHAMAD NAZRI,24/09/2005,LELAKI,MELAYU,ISLAM          ,840731025183,MUHAMAD NAZRI BIN ABD MAJID,871201235142,SURIANTI BINTI MOHD SAAD,2000,1000,3000
050212070146,BL84007,TAN QIU TONG,12/02/2005,PEREMPUAN,CINA,BUDDHA         ,650827075567,TAN EAH HENG,731220075004,GOH SIEW ENG,1500,,1500
051021070180,BN45305,AYU NAJWA BINTI MOHD AYUB KHAN,21/10/2005,PEREMPUAN,MELAYU,ISLAM          ,700314025321,MOHD AYUB KHAN BIN JAN MOHAMAD,720308075080,ROSMAWATI BINTI ABU SEMAN,1200,0,1200
040510070137,BJ06133,LEE KAH CHUN,10/05/2004,LELAKI,CINA,BUDDHA         ,710506025771,LEE YU FOOK,821104075524,CHONG HOOI TING,800,0,800
040624070098,BJ07049,ONG HOOI TING,24/06/2004,PEREMPUAN,CINA,BUDDHA         ,730315075109,ONG KOK SENG,790910075108,LIM SIEW LAN,800,0,800
051025070292,BN42962,NUR SYEIDATULL AYELIA BINTI ABDULLAH,25/10/2005,PEREMPUAN,MELAYU,ISLAM          ,730825025013,MOHD ZAHIR BIN HASSAN,821229075122,NORFAZILAH BINTI RAMLI,1750,1000,2750
051109070951,BP52333,KUGGAN A/L MUNIANDY,09/11/2005,LELAKI,INDIA,HINDU          ,840911075831,K RAJU A/L KUMARASAMY,871012265086,KANI MOLI A/P ARUHUNAN,900,,900
050605070403,BL91214,ASHWEEN RAU A/L SATHIYAVELAN,05/06/2005,LELAKI,INDIA,HINDU          ,790107075731,SATHIYAVELAN A/L LETCHUMANAM,790917075354,HEMALATHA A/P THANARAJU,700,0,700
